[   
    {
        "name": "Boostrap 4",
        "link": {
            "attributes": {
                "rel": "stylesheet",
                "href":"https://maxcdn.bootstrapcdn.com/bootstrap/4.0.0/css/bootstrap.min.css",
                "integrity": "sha384-Gn5384xqQ1aoWXA+058RXPxPg6fy4IWvTNh0E263XmFcJlSAwiGgFAW/dAiS6JXm",
                "crossorigin":"anonymous"
            }
        },
        "script": [
            { 
                "attributes": {
                    "src":"https://code.jquery.com/jquery-3.2.1.slim.min.js",
                    "integrity": "sha384-KJ3o2DKtIkvYIK3UENzmM7KCkRr/rE9/Qpg6aAZGJwFDMVNA/GpGFF93hXpG5KkN",
                    "crossorigin":"anonymous"
                }
            },
            { 
                "attributes": {
                    "src":"https://cdnjs.cloudflare.com/ajax/libs/popper.js/1.12.9/umd/popper.min.js",
                    "integrity": "sha384-ApNbgh9B+Y1QKtv3Rn7W3mgPxhU9K/ScQsAP7hUibX39j7fakFPskvXusvfa0b4Q",
                    "crossorigin":"anonymous"
                }
            },
            { 
                "attributes": {
                    "src":"https://maxcdn.bootstrapcdn.com/bootstrap/4.0.0/js/bootstrap.min.js",
                    "integrity": "sha384-JZR6Spejh4U02d8jOt6vLEHfe/JQGiRRSQQxSfFWpi1MquVdAyjUar5+76PVCmYl",
                    "crossorigin":"anonymous"
                }
            }
        ]
    },
    {
        "alert": {
            "div": {
                "attributes": {
                    "class": {
                        "default": "alert",
                        "danger": "alert alert-danger",
                        "dark": "alert alert-dark",
                        "info": "alert alert-info",
                        "light": "alert alert-light",
                        "primary": "alert alert-primary",
                        "secondary": "alert alert-secondary",
                        "success": "alert alert-success",
                        "warning": "alert alert-warning"
                    },
                    "role": "alert"
                }
            },
            "children": [
                {
                    "link": {
                        "a": {
                            "attributes": {
                                "class": "alert-link"
                            }
                        }
                    },
                    "heading": {
                        "h4": {
                            "attributes": {
                                "class": "alert-heading"
                            }
                        }
                    }
                }
            ]
        },
        "alert_x": {
            "div": {
                "attributes": {
                    "class": {
                        "default": "alert alert-dismissible fade show",
                        "danger": "alert alert-danger alert-dismissible fade show",
                        "dark": "alert alert-dark alert-dismissible fade show",
                        "info": "alert alert-info alert-dismissible fade show",
                        "light": "alert alert-light alert-dismissible fade show",
                        "primary": "alert alert-primary alert-dismissible fade show",
                        "secondary": "alert alert-secondary alert-dismissible fade show",
                        "success": "alert alert-success alert-dismissible fade show",
                        "warning": "alert alert-warning alert-dismissible fade show"
                    },
                    "role": "alert"
                },  
                "include": [
                    {
                        "button": {
                            "attributes": {
                                "type": "button",
                                "class": "close",
                                "data-dismiss": "alert",
                                "aria-label": "Close"
                            },
                            "include": [
                                {
                                    "span": {
                                        "attributes": {
                                            "aria-hidden": "true"
                                        },
                                        "content": "&times;"
                                    }
                                }
                            ]
                        }
                    }
                ]
            },
            "children": [
                {
                    "link": {
                        "a": {
                            "attributes": {
                                "class": "alert-link"
                            }
                        }
                    },
                    "heading": {
                        "h4": {
                            "attributes": {
                                "class": "alert-heading"
                            }
                        }
                    }
                }
            ]
        },
        "badge": {
            "span": {
                "attributes": {
                    "class": {
                        "default": "badge",
                        "primary": "badge badge-primary",
                        "danger": "badge badge-danger",
                        "dark": "badge badge-dark",
                        "info": "badge badge-info",
                        "light": "badge badge-light",
                        "secondary": "badge badge-secondary",
                        "success": "badge badge-success",
                        "warning": "badge badge-warning",
                        "pill": "badge-pill"
                    }
                }
            }
        },
        "badge_link": {
            "a": {
                "attributes": {
                    "class": {
                        "default": "badge",
                        "primary": "badge badge-primary",
                        "danger": "badge badge-danger",
                        "dark": "badge badge-dark",
                        "info": "badge badge-info",
                        "light": "badge badge-light",
                        "secondary": "badge badge-secondary",
                        "success": "badge badge-success",
                        "warning": "badge badge-warning",
                        "pill": "badge-pill"
                    },
                    "href": "#"
                }
            }
        },
        "brand": {
            "a": {
                "attributes": {
                    "class": "navbar-brand",
                    "href": "#"
                }
            }
        },
        "breadcrumb": {
            "nav": {
                "attributes": {
                    "aria-label": "breadcrumb"
                },
                "include": [
                    {
                        "@ol": {
                            "attributes": {
                                "class": "breadcrumb"
                            }
                        }
                    }
                ]
            },
            "children": [
                {
                    "item": {
                        "li": {
                            "attributes": {
                                "class": "breadcrumb-item"
                            }
                        }
                    }
                }
            ]
        },
        "btn-group": {
            "div": {
                "attributes": {
                    "class": "btn-group-toggle",
                    "data-toggle": "buttons"
                },
                "include": [
                    {
                        "label": {
                            "attributes": {
                                "class": {
                                    "default": "btn",
                                    "primary": "btn btn-primary",
                                    "primary-outline": "btn btn-outline-primary",
                                    "danger": "btn btn-danger",
                                    "danger-outline": "btn btn-outline-danger",
                                    "dark": "btn btn-dark",
                                    "dark-outline": "btn btn-outline-dark",
                                    "info": "btn btn-info",
                                    "info-outline": "btn btn-outline-info",
                                    "light": "btn btn-light",
                                    "light-outline": "btn btn-outline-light",
                                    "link": "btn btn-link",
                                    "secondary": "btn btn-secondary",
                                    "secondary-outline": "btn btn-outline-secondary",
                                    "success": "btn btn-success",
                                    "success-outline": "btn btn-outline-success",
                                    "warning": "btn btn-warning",
                                    "warning-outline": "btn btn-outline-warning",
                                    "lg": "btn-lg",
                                    "sm": "btn-sm",
                                    "block": "btn-block"
                                }
                            }
                        }
                    }
                ]
            }
        },
        "btn": {
            "button": {
                "attributes": {
                    "class": {
                        "default": "btn",
                        "primary": "btn btn-primary",
                        "primary-outline": "btn btn-outline-primary",
                        "danger": "btn btn-danger",
                        "danger-outline": "btn btn-outline-danger",
                        "dark": "btn btn-dark",
                        "dark-outline": "btn btn-outline-dark",
                        "info": "btn btn-info",
                        "info-outline": "btn btn-outline-info",
                        "light": "btn btn-light",
                        "light-outline": "btn btn-outline-light",
                        "link": "btn btn-link",
                        "secondary": "btn btn-secondary",
                        "secondary-outline": "btn btn-outline-secondary",
                        "success": "btn btn-success",
                        "success-outline": "btn btn-outline-success",
                        "warning": "btn btn-warning",
                        "warning-outline": "btn btn-outline-warning",
                        "lg": "btn-lg",
                        "sm": "btn-sm",
                        "block": "btn-block"
                    },
                    "type": "button"
                }
            }
        },
        "btn_link": {
            "a": {
                "attributes": {
                    "class": {
                        "default": "btn",
                        "danger": "btn btn-danger",
                        "danger-outline": "btn btn-outline-danger",
                        "dark": "btn btn-dark",
                        "dark-outline": "btn btn-outline-dark",
                        "info": "btn btn-info",
                        "info-outline": "btn btn-outline-info",
                        "light": "btn btn-light",
                        "light-outline": "btn btn-outline-light",
                        "link": "btn btn-link",
                        "primary": "btn btn-primary",
                        "primary-outline": "btn btn-outline-primary",
                        "secondary": "btn btn-secondary",
                        "secondary-outline": "btn btn-outline-secondary",
                        "success": "btn btn-success",
                        "success-outline": "btn btn-outline-success",
                        "warning": "btn btn-warning",
                        "warning-outline": "btn btn-outline-warning",
                        "lg": "btn-lg",
                        "sm": "btn-sm",
                        "block": "btn-block"
                    },
                    "href": "#",
                    "role": "button"
                }
            }
        },
        "btn_input": {
            "input": {
                "attributes": {
                    "class": {
                        "default": "btn",
                        "danger": "btn btn-danger",
                        "danger-outline": "btn btn-outline-danger",
                        "dark": "btn btn-dark",
                        "dark-outline": "btn btn-outline-dark",
                        "info": "btn btn-info",
                        "info-outline": "btn btn-outline-info",
                        "light": "btn btn-light",
                        "light-outline": "btn btn-outline-light",
                        "link": "btn btn-link",
                        "primary": "btn btn-primary",
                        "primary-outline": "btn btn-outline-primary",
                        "secondary": "btn btn-secondary",
                        "secondary-outline": "btn btn-outline-secondary",
                        "success": "btn btn-success",
                        "success-outline": "btn btn-outline-success",
                        "warning": "btn btn-warning",
                        "warning-outline": "btn btn-outline-warning",
                        "lg": "btn-lg",
                        "sm": "btn-sm",
                        "block": "btn-block"
                    }
                }
            }
        },
        "btn_toolbar": {
            "div": {
                "attributes": {
                    "class": "btn-toolbar",
                    "role": "toolbar"
                }
            }
        },
        "btn_group": {
            "div": {
                "attributes": {
                    "class": {
                        "default": "btn-group",
                        "vertical": "btn-group-vertical"
                    },
                    "role": "group"
                }
            }
        },
        "card": {
            "div": {
                "attributes": {
                    "class": "card"
                }
            },
            "children": [
                { 
                    "img_top": {
                        "img": {
                            "attributes": {
                                "class": "card-img-top"
                            }
                        }
                    },
                    "img_bottom": {
                        "img": {
                            "attributes": {
                                "class": "card-img-bottom"
                            }
                        }
                    },
                    "title": {
                        "h5": {
                            "attributes": {
                                "class": "card-title"
                            }
                        }
                    },
                    "text": {
                        "p": {
                            "attributes": {
                                "class": "card-text"
                            }
                        }
                    },
                    "header": {
                        "div": {
                            "attributes": {
                                "class": "card-header"
                            }
                        }
                    },
                    "body": {
                        "div": {
                            "attributes": {
                                "class": "card-body"
                            }
                        }
                    },
                    "footer": {
                        "div": {
                            "attributes": {
                                "class": {
                                    "default": "card-footer",
                                    "muted": "text-muted"
                                }
                            }
                        }
                    }
                }
            ]            
        },
        "title": {
            "fail": {}
        },
        "checkbox": {
            "input": {
                "attributes":{
                    "type": "checkbox"
                }
            }
        },
        "col": {
            "div": {
                "attributes": {
                    "class": "col"
                }
            }
        },
        "container": {
            "div": {
                "attributes": {
                    "class": {
                        "default": "container",
                        "fluid": "container-fluid"
                    }
                }
            }
        },
        "jumbotron": {
            "div": {
                "attributes": {
                    "class": "jumbotron"
                }
            }
        },
        "navbar": {
            "nav": {
                "attributes": {
                    "class": {
                        "dark_dark": "navbar navbar-dark bg-dark",
                        "default": "navbar",
                        "light_light": "navbar navbar-light bg-light"
                    }
                }
            },
            "children": [{
                "menu": {
                    "div": {
                        "attributes": {
                            "class": "collapse navbar-collapse",
                            "id": "navbarSupportedContent"
                        },
                        "include": [{
                            "@ul": {
                                "attributes": {
                                    "class": "navbar-nav mr-auto"
                                }
                            }
                        }]
                    },
                    "children": [{
                        "item": {
                            "li": {
                                "attributes": {
                                    "class": "nav-item"
                                },
                                "include": [{
                                    "@a": {
                                        "attributes": {
                                            "class": "nav-link"
                                        }
                                    }
                                }]
                            }
                        }
                    }]
                }
            }]
        },
        "radio": {
            "input": {
                "attributes":{
                    "type": "radio"
                }
            }
        },
        "row": {
            "div": {
                "attributes": {
                    "class": "row"
                }
            }
        },
        "tabbed_content": {
            "ul": {
                "attributes": {
                    "class": "nav nav-tabs",
                    "role": "tablist"
                }
            },
            "children": [{
                "tab": {
                    "li": {
                        "attributes": {
                            "class": "nav-item"
                        },
                        "include": [{
                            "@a": {
                                "attributes": {
                                    "class": "nav-link",
                                    "data-toggle": "tab",
                                    "role":"tab"
                                }
                            }
                        }]
                    }
                },
                "content": {
                    "div": {
                        "attributes": {
                            "class": "tab-content"
                        }
                    },
                    "children": [{
                        "pane": {
                            "div": {
                                "attributes": {
                                    "class": "tab-pane",
                                    "role": "tabpanel"
                                }
                            }
                        }
                    }]
                }
            }]
        },
        "table": {
            "table": {
                "attributes": {
                    "class": {
                        "default": "table",
                        "bordered": "table table-bordered"
                    }
                }
            },
            "children": [{
                "head": {
                    "thead": {
                        "attributes": {},
                        "include": [{
                            "@tr": {}
                        }]
                    }
                },
                "body": {
                    "tbody": {
                        "attributes": {}
                    }
                }
            }]
        },
        "toggler": {
            "button": {
                "attributes": {
                    "class": "navbar-toggler",
                    "data-target": "#navbarText",
                    "data-toggle": "collapse",
                    "type": "button"
                },
                "include": [{
                    "span": {
                        "attributes": {
                            "class": "navbar-toggler-icon"
                        }
                    }
                }]
            }
        }
    }
]